%!PS-Adobe-3.0 EPSF-3.0
%%Creator: Adobe Illustrator by AutoTrace version 0.31.1
%%Title: /ramdisk/qrcode_353957.eps
%%CreationDate: Thu Nov 29 05:16:58 2012
%%BoundingBox: 0 0 270 270
%%DocumentData: Clean7Bit
%%EndComments
%%BeginProlog
/bd { bind def } bind def
/incompound false def
/m { moveto } bd
/l { lineto } bd
/c { curveto } bd
/F { incompound not {fill} if } bd
/f { closepath F } bd
/S { stroke } bd
/*u { /incompound true def } bd
/*U { /incompound false def f} bd
/k { setcmykcolor } bd
/K { k } bd
%%EndProlog
%%BeginSetup
%%EndSetup
0.000 0.000 0.000 0.000 k
*u
0 270 m
0 0 l
270 0 l
270 270 l
0 270 l
f
*U
0.000 0.000 0.000 1.000 k
*u
10 260 m
10 190 l
80 190 l
80 260 l
10 260 l
f
90 260 m
90 240 l
110 240 l
110 220 l
90 220 l
90 170 l
80 170 l
80 180 l
60 180 l
60 160 l
50 160 l
50 170 l
40 170 l
40 180 l
10 180 l
10 150 l
20 150 l
20 160 l
50 160 l
50 150 l
30 150 l
30 140 l
20 140 l
20 120 l
10 120 l
10 110 l
30 110 l
30 100 l
10 100 l
10 90 l
30 90 l
30 100 l
40 100 l
40 110 l
30 110 l
30 120 l
40 120 l
40 130 l
30 130 l
30 140 l
50 140 l
50 120 l
70 120 l
70 110 l
60 110 l
60 100 l
50 100 l
50 90 l
90 90 l
90 80 l
100 80 l
100 70 l
90 70 l
90 60 l
100 60 l
100 50 l
130 50 l
130 30 l
120 30 l
120 40 l
90 40 l
90 10 l
100 10 l
100 30 l
110 30 l
110 10 l
120 10 l
120 20 l
140 20 l
140 10 l
160 10 l
160 40 l
140 40 l
140 50 l
150 50 l
150 70 l
140 70 l
140 60 l
100 60 l
100 70 l
130 70 l
130 80 l
100 80 l
100 110 l
110 110 l
110 90 l
120 90 l
120 100 l
140 100 l
140 80 l
160 80 l
160 100 l
170 100 l
170 60 l
160 60 l
160 50 l
180 50 l
180 30 l
170 30 l
170 10 l
180 10 l
180 20 l
190 20 l
190 50 l
210 50 l
210 30 l
200 30 l
200 20 l
220 20 l
220 10 l
230 10 l
230 20 l
220 20 l
220 40 l
240 40 l
240 30 l
260 30 l
260 40 l
250 40 l
250 50 l
260 50 l
260 90 l
250 90 l
250 100 l
240 100 l
240 90 l
230 90 l
230 80 l
220 80 l
220 100 l
210 100 l
210 110 l
190 110 l
190 100 l
180 100 l
180 110 l
170 110 l
170 140 l
160 140 l
160 120 l
140 120 l
140 130 l
150 130 l
150 150 l
140 150 l
140 140 l
120 140 l
120 130 l
130 130 l
130 110 l
110 110 l
110 120 l
100 120 l
100 130 l
110 130 l
110 150 l
80 150 l
80 160 l
90 160 l
90 170 l
100 170 l
100 160 l
120 160 l
120 150 l
130 150 l
130 160 l
120 160 l
120 180 l
140 180 l
140 160 l
150 160 l
150 170 l
160 170 l
160 150 l
170 150 l
170 160 l
180 160 l
180 170 l
190 170 l
190 160 l
210 160 l
210 170 l
220 170 l
220 150 l
180 150 l
180 130 l
190 130 l
190 120 l
210 120 l
210 140 l
230 140 l
230 150 l
240 150 l
240 160 l
250 160 l
250 150 l
260 150 l
260 180 l
240 180 l
240 160 l
230 160 l
230 170 l
220 170 l
220 180 l
180 180 l
180 170 l
160 170 l
160 210 l
170 210 l
170 220 l
180 220 l
180 250 l
170 250 l
170 240 l
160 240 l
160 250 l
150 250 l
150 260 l
120 260 l
120 250 l
100 250 l
100 260 l
90 260 l
f
190 260 m
190 190 l
260 190 l
260 260 l
190 260 l
f
*U
0.000 0.000 0.000 0.000 k
*u
20 250 m
20 200 l
70 200 l
70 250 l
20 250 l
f
120 250 m
120 240 l
130 240 l
130 250 l
120 250 l
f
200 250 m
200 200 l
250 200 l
250 250 l
200 250 l
f
*U
0.000 0.000 0.000 1.000 k
*u
30 240 m
30 210 l
60 210 l
60 240 l
30 240 l
f
210 240 m
210 210 l
240 210 l
240 240 l
210 240 l
f
*U
0.000 0.000 0.000 0.000 k
*u
120 230 m
120 220 l
130 220 l
130 200 l
120 200 l
120 210 l
100 210 l
100 180 l
110 180 l
110 200 l
120 200 l
120 190 l
130 190 l
130 200 l
140 200 l
140 180 l
150 180 l
150 210 l
160 210 l
160 220 l
170 220 l
170 230 l
150 230 l
150 210 l
140 210 l
140 230 l
120 230 l
f
*U
0.000 0.000 0.000 1.000 k
*u
170 200 m
170 190 l
180 190 l
180 200 l
170 200 l
f
*U
0.000 0.000 0.000 0.000 k
*u
70 170 m
70 160 l
60 160 l
60 150 l
70 150 l
70 140 l
60 140 l
60 130 l
70 130 l
70 120 l
80 120 l
80 110 l
70 110 l
70 100 l
90 100 l
90 140 l
80 140 l
80 150 l
70 150 l
70 160 l
80 160 l
80 170 l
70 170 l
f
*U
0.000 0.000 0.000 1.000 k
*u
70 140 m
70 130 l
80 130 l
80 140 l
70 140 l
f
250 140 m
250 130 l
240 130 l
240 120 l
220 120 l
220 110 l
240 110 l
240 120 l
250 120 l
250 110 l
260 110 l
260 140 l
250 140 l
f
*U
0.000 0.000 0.000 0.000 k
*u
140 110 m
140 100 l
150 100 l
150 110 l
140 110 l
f
180 90 m
180 60 l
210 60 l
210 90 l
180 90 l
f
240 90 m
240 80 l
230 80 l
230 70 l
220 70 l
220 60 l
230 60 l
230 50 l
240 50 l
240 70 l
250 70 l
250 90 l
240 90 l
f
*U
0.000 0.000 0.000 1.000 k
*u
10 80 m
10 10 l
80 10 l
80 80 l
10 80 l
f
190 80 m
190 70 l
200 70 l
200 80 l
190 80 l
f
*U
0.000 0.000 0.000 0.000 k
*u
20 70 m
20 20 l
70 20 l
70 70 l
20 70 l
f
*U
0.000 0.000 0.000 1.000 k
*u
30 60 m
30 30 l
60 30 l
60 60 l
30 60 l
f
*U
0.000 0.000 0.000 0.000 k
*u
140 30 m
140 20 l
150 20 l
150 30 l
140 30 l
f
*U
0.000 0.000 0.000 1.000 k
*u
250 20 m
250 10 l
260 10 l
260 20 l
250 20 l
f
*U
%%Trailer
%%EOF
